Attribute,Chi_square_value,P_value,Result
selfEmployee,2.183776299,0.139471876,Not Important
NumberOfEmployee,16.69125454,0.005124137,Important
Istech,0.788352385,0.374598793,Not Important
IsPrimaryTech,0.002248423,0.962180454,Not Important
benefitMH,57.06061173,2.49E-12,Important
optionMH,113.6688844,1.78E-24,Important
discussMH,0.046231463,0.97714939,Not Important
resourcesMH,4.347924159,0.113726131,Not Important
protectMH,2.383228804,0.303730525,Not Important
issueMH,25.0746948,0.000134782,Important
discussempMH,10.85913161,0.004384999,Important
thinkMH,8.287469664,0.015863493,Important
feelMH,2.271117045,0.32124265,Not Important
feelComfortableMH,2.183190401,0.335680589,Not Important
takeseriousMH,19.99192411,4.56E-05,Important
heardMH,6.932645244,0.008463642,Important
coverageMH,4.472906564,0.034436364,Important
onlineresourcesMH,24.65363608,4.43E-06,Important
treatedforMH,105.1253435,7.96E-22,Important
revealedMH,65.48566741,3.95E-14,Important
revealcoworkerMH,106.2820145,4.52E-22,Important
bellieveMH,64.18305363,7.50E-14,Important
productaffectedMH,41.00019047,6.54E-09,Important
howmuchaffectedMH,44.89455231,4.18E-09,Important
havepreviousemployee,7.721690289,0.005456129,Important
previousprovideMH,85.11845521,2.45E-18,Important
awareMH,76.71669939,1.55E-16,Important
formallydiscussMH,24.24164671,2.22E-05,Important
prevprovideMHhelp,8.80311495,0.012258233,Important
anonimityprotectMH,38.56664668,2.14E-08,Important
negativeEmpMH,71.75444536,1.80E-15,Important
physicalhealthMH,4.354795608,0.11333607,Not Important
prevDiscussMH,6.712685339,0.03486253,Important
directSupMH,24.72105007,1.77E-05,Important
feelPrevEmpMH,52.09054191,2.86E-11,Important
negativeConseMH,50.00032259,1.39E-11,Important
willingPhyMH,2.671597827,0.262948019,Not Important
bringPotentialEmpMH,32.09768841,1.07E-07,Important
identityPersonMH,65.61989003,1.90E-13,Important
viewNegEmpMH,45.42292096,3.25E-09,Important
shareFrndMH,162.1565763,3.43E-33,Important
observedMH,124.641332,5.45E-26,Important
observAnotherMH,54.56661949,8.50E-12,Important
familyMH,295.7739532,5.94E-65,Important
pastMH,1082.269501,9.73E-236,Important
currentlyMH,819.7956566,9.63E-179,Important
soughttreatmentMH,993.3282448,5.06E-218,Important
issueInterfareMH,915.7743985,6.37E-197,Important
issueNotInsterfareMH,785.1958616,1.24E-168,Important
age,67.75606368,0.070007513,Not Important
gender,69.59808221,7.71E-16,Important
country,126.6557433,3.61E-08,Important
US_State,110.9401753,4.36E-07,Important
workCountry,116.8570419,6.82E-07,Important
US_State_work,107.3248374,1.99E-06,Important
workPosition,397.5408794,1.56E-07,Important
workRemotely,5.121312378,0.077254031,Not Important
